{"incidents":[{"ends_at":"2022-04-20 02:45 UTC","id":82039,"inserted_at":"2022-04-20","service_ids":[27213,27208,13626],"starts_at":"2022-04-20 02:38 UTC","status_page_id":4124,"title":"Service Polygon /swap/v1/quote seems to be down","type":"major","url":"https://status.0x.org/incidents/82039"},{"ends_at":"2022-04-18 22:02 UTC","id":81917,"inserted_at":"2022-04-18","service_ids":[27208,27213,13626],"starts_at":"2022-04-18 22:00 UTC","status_page_id":4124,"title":"Service Polygon /swap/v1/quote seems to be down","type":"major","url":"https://status.0x.org/incidents/81917"},{"ends_at":"2022-04-12 09:11 UTC","id":81348,"inserted_at":"2022-04-12","service_ids":[27203,27202,13626],"starts_at":"2022-04-12 09:06 UTC","status_page_id":4124,"title":"Service BSC /swap/v1/quote seems to be down","type":"major","url":"https://status.0x.org/incidents/81348"},{"ends_at":"2022-04-08 17:20 UTC","id":81141,"inserted_at":"2022-04-08","service_ids":[13626,22250,27204],"starts_at":"2022-04-08 17:11 UTC","status_page_id":4124,"title":"Service Ethereum /swap/v1/quote seems to be down","type":"major","url":"https://status.0x.org/incidents/81141"},{"ends_at":"2022-03-31 00:24 UTC","id":80165,"inserted_at":"2022-03-31","service_ids":[13626,22250,27204],"starts_at":"2022-03-31 00:21 UTC","status_page_id":4124,"title":"Service Ethereum /swap/v1/quote seems to be down","type":"major","url":"https://status.0x.org/incidents/80165"},{"ends_at":"2022-03-28 09:50 UTC","id":79759,"inserted_at":"2022-03-28","service_ids":[13626,22250,27204],"starts_at":"2022-03-28 09:47 UTC","status_page_id":4124,"title":"Service Ethereum /swap/v1/quote seems to be down","type":"major","url":"https://status.0x.org/incidents/79759"},{"ends_at":"2022-03-26 01:07 UTC","id":79569,"inserted_at":"2022-03-26","service_ids":[22250,13626,27204],"starts_at":"2022-03-26 01:02 UTC","status_page_id":4124,"title":"Service Ethereum /swap/v1/quote seems to be down","type":"major","url":"https://status.0x.org/incidents/79569"},{"ends_at":"2022-03-22 13:12 UTC","id":79235,"inserted_at":"2022-03-22","service_ids":[22250,27204,13626],"starts_at":"2022-03-22 13:08 UTC","status_page_id":4124,"title":"Service Ethereum /swap/v1/quote seems to be down","type":"major","url":"https://status.0x.org/incidents/79235"},{"ends_at":"2022-03-16 05:02 UTC","id":78677,"inserted_at":"2022-03-16","service_ids":[27205,13626,27209],"starts_at":"2022-03-16 04:59 UTC","status_page_id":4124,"title":"Service Avalanche /swap/v1/quote seems to be down","type":"major","url":"https://status.0x.org/incidents/78677"},{"ends_at":"2022-03-08 22:47 UTC","id":78026,"inserted_at":"2022-03-08","service_ids":[27204,13626,22251],"starts_at":"2022-03-08 22:43 UTC","status_page_id":4124,"title":"Service Ethereum /sra/v4/orders seems to be down","type":"major","url":"https://status.0x.org/incidents/78026"},{"ends_at":"2022-03-08 22:47 UTC","id":78025,"inserted_at":"2022-03-08","service_ids":[27204,13626,28744],"starts_at":"2022-03-08 22:43 UTC","status_page_id":4124,"title":"Service Ethereum /orderbook/v1 seems to be down","type":"major","url":"https://status.0x.org/incidents/78025"},{"ends_at":null,"id":77032,"inserted_at":"2022-02-24","service_ids":[27204,13626,28744],"starts_at":"2022-02-24 22:54 UTC","status_page_id":4124,"title":"Ethereum Mainnet /orderbook/v1 some updates slow to post","type":"major","url":"https://status.0x.org/incidents/77032"},{"ends_at":"2022-02-24 00:04 UTC","id":76898,"inserted_at":"2022-02-23","service_ids":[27213,13626,27208],"starts_at":"2022-02-23 23:53 UTC","status_page_id":4124,"title":"Service Polygon /swap/v1/quote seems to be down","type":"major","url":"https://status.0x.org/incidents/76898"},{"ends_at":"2022-02-03 19:43 UTC","id":74964,"inserted_at":"2022-02-03","service_ids":[13626,27207,27212],"starts_at":"2022-02-03 19:10 UTC","status_page_id":4124,"title":"Service Fantom /swap/v1/quote seems to be down","type":"major","url":"https://status.0x.org/incidents/74964"},{"ends_at":"2022-02-03 18:40 UTC","id":74963,"inserted_at":"2022-02-03","service_ids":[13626,27207,27212],"starts_at":"2022-02-03 18:38 UTC","status_page_id":4124,"title":"Service Fantom /swap/v1/quote seems to be down","type":"major","url":"https://status.0x.org/incidents/74963"},{"ends_at":"2022-02-03 18:17 UTC","id":74961,"inserted_at":"2022-02-03","service_ids":[27207,27212,13626],"starts_at":"2022-02-03 18:08 UTC","status_page_id":4124,"title":"Service Fantom /swap/v1/quote seems to be down","type":"major","url":"https://status.0x.org/incidents/74961"},{"ends_at":"2022-02-03 17:44 UTC","id":74938,"inserted_at":"2022-02-03","service_ids":[13626,27212,27207],"starts_at":"2022-02-03 17:41 UTC","status_page_id":4124,"title":"Service Fantom /swap/v1/quote seems to be down","type":"major","url":"https://status.0x.org/incidents/74938"},{"ends_at":"2022-02-03 17:30 UTC","id":74936,"inserted_at":"2022-02-03","service_ids":[27207,27212,13626],"starts_at":"2022-02-03 17:23 UTC","status_page_id":4124,"title":"Service Fantom /swap/v1/quote seems to be down","type":"major","url":"https://status.0x.org/incidents/74936"},{"ends_at":"2022-02-03 17:01 UTC","id":74934,"inserted_at":"2022-02-03","service_ids":[13626,27207,27212],"starts_at":"2022-02-03 16:57 UTC","status_page_id":4124,"title":"Service Fantom /swap/v1/quote seems to be down","type":"major","url":"https://status.0x.org/incidents/74934"},{"ends_at":"2022-02-03 16:45 UTC","id":74931,"inserted_at":"2022-02-03","service_ids":[27207,13626,27212],"starts_at":"2022-02-03 16:41 UTC","status_page_id":4124,"title":"Service Fantom /swap/v1/quote seems to be down","type":"major","url":"https://status.0x.org/incidents/74931"},{"ends_at":"2022-02-03 16:33 UTC","id":74930,"inserted_at":"2022-02-03","service_ids":[13626,27212,27207],"starts_at":"2022-02-03 16:29 UTC","status_page_id":4124,"title":"Service Fantom /swap/v1/quote seems to be down","type":"major","url":"https://status.0x.org/incidents/74930"},{"ends_at":"2022-02-03 15:26 UTC","id":74926,"inserted_at":"2022-02-03","service_ids":[13626,27212,27207],"starts_at":"2022-02-03 15:22 UTC","status_page_id":4124,"title":"Service Fantom /swap/v1/quote seems to be down","type":"major","url":"https://status.0x.org/incidents/74926"},{"ends_at":"2022-02-03 14:52 UTC","id":74924,"inserted_at":"2022-02-03","service_ids":[13626,27212,27207],"starts_at":"2022-02-03 14:44 UTC","status_page_id":4124,"title":"Service Fantom /swap/v1/quote seems to be down","type":"major","url":"https://status.0x.org/incidents/74924"},{"ends_at":"2022-02-02 22:41 UTC","id":74787,"inserted_at":"2022-02-02","service_ids":[13626,27212,27207],"starts_at":"2022-02-02 22:39 UTC","status_page_id":4124,"title":"Service Fantom /swap/v1/quote seems to be down","type":"major","url":"https://status.0x.org/incidents/74787"},{"ends_at":"2022-02-02 20:59 UTC","id":74780,"inserted_at":"2022-02-02","service_ids":[13626,27212,27207],"starts_at":"2022-02-02 20:55 UTC","status_page_id":4124,"title":"Service Fantom /swap/v1/quote seems to be down","type":"major","url":"https://status.0x.org/incidents/74780"},{"ends_at":"2022-02-02 20:38 UTC","id":74779,"inserted_at":"2022-02-02","service_ids":[27207,13626,27212],"starts_at":"2022-02-02 20:33 UTC","status_page_id":4124,"title":"Service Fantom /swap/v1/quote seems to be down","type":"major","url":"https://status.0x.org/incidents/74779"},{"ends_at":"2022-02-02 20:22 UTC","id":74778,"inserted_at":"2022-02-02","service_ids":[13626,27207,27212],"starts_at":"2022-02-02 20:13 UTC","status_page_id":4124,"title":"Service Fantom /swap/v1/quote seems to be down","type":"major","url":"https://status.0x.org/incidents/74778"},{"ends_at":"2022-02-02 18:27 UTC","id":74772,"inserted_at":"2022-02-02","service_ids":[13626,27212,27207],"starts_at":"2022-02-02 18:15 UTC","status_page_id":4124,"title":"Service Fantom /swap/v1/quote seems to be down","type":"major","url":"https://status.0x.org/incidents/74772"},{"ends_at":"2022-01-31 17:50 UTC","id":74556,"inserted_at":"2022-01-31","service_ids":[27207,27212,13626],"starts_at":"2022-01-31 17:36 UTC","status_page_id":4124,"title":"Service Fantom /swap/v1/quote seems to be down","type":"major","url":"https://status.0x.org/incidents/74556"},{"ends_at":"2022-01-31 00:18 UTC","id":74489,"inserted_at":"2022-01-31","service_ids":[27212,13626,27207],"starts_at":"2022-01-31 00:06 UTC","status_page_id":4124,"title":"Service Fantom /swap/v1/quote seems to be down","type":"major","url":"https://status.0x.org/incidents/74489"},{"ends_at":"2022-01-30 03:39 UTC","id":74464,"inserted_at":"2022-01-30","service_ids":[27213,13626,27208],"starts_at":"2022-01-30 03:32 UTC","status_page_id":4124,"title":"Service Polygon /swap/v1/quote seems to be down","type":"major","url":"https://status.0x.org/incidents/74464"},{"ends_at":"2022-01-27 01:25 UTC","id":74163,"inserted_at":"2022-01-27","service_ids":[27213,13626,27208],"starts_at":"2022-01-27 01:23 UTC","status_page_id":4124,"title":"Service Polygon /swap/v1/quote seems to be down","type":"major","url":"https://status.0x.org/incidents/74163"},{"ends_at":"2022-01-24 17:41 UTC","id":73919,"inserted_at":"2022-01-24","service_ids":[13626,27213,27208],"starts_at":"2022-01-24 17:29 UTC","status_page_id":4124,"title":"Service Polygon /swap/v1/quote seems to be down","type":"major","url":"https://status.0x.org/incidents/73919"},{"ends_at":"2022-01-24 17:23 UTC","id":73918,"inserted_at":"2022-01-24","service_ids":[13626,27213,27208],"starts_at":"2022-01-24 17:21 UTC","status_page_id":4124,"title":"Service Polygon /swap/v1/quote seems to be down","type":"major","url":"https://status.0x.org/incidents/73918"},{"ends_at":"2022-01-24 00:12 UTC","id":73810,"inserted_at":"2022-01-24","service_ids":[27212,13626,27207],"starts_at":"2022-01-24 00:06 UTC","status_page_id":4124,"title":"Service Fantom /swap/v1/quote seems to be down","type":"major","url":"https://status.0x.org/incidents/73810"},{"ends_at":"2022-01-23 04:00 UTC","id":73784,"inserted_at":"2022-01-23","service_ids":[13626,27208,27213],"starts_at":"2022-01-23 03:58 UTC","status_page_id":4124,"title":"Service Polygon /swap/v1/quote seems to be down","type":"major","url":"https://status.0x.org/incidents/73784"},{"ends_at":"2022-01-17 00:09 UTC","id":73112,"inserted_at":"2022-01-17","service_ids":[27212,13626,27207],"starts_at":"2022-01-17 00:05 UTC","status_page_id":4124,"title":"Service Fantom /swap/v1/quote seems to be down","type":"major","url":"https://status.0x.org/incidents/73112"},{"ends_at":"2022-01-14 04:25 UTC","id":72862,"inserted_at":"2022-01-14","service_ids":[27204,13626,13632],"starts_at":"2022-01-14 04:20 UTC","status_page_id":4124,"title":"Service Ethereum /sra/v3/orderbook seems to be down","type":"major","url":"https://status.0x.org/incidents/72862"},{"ends_at":"2022-01-14 04:13 UTC","id":72861,"inserted_at":"2022-01-14","service_ids":[13626,13632,27204],"starts_at":"2022-01-14 03:44 UTC","status_page_id":4124,"title":"Service Ethereum /sra/v3/orderbook seems to be down","type":"major","url":"https://status.0x.org/incidents/72861"},{"ends_at":"2022-01-14 04:22 UTC","id":72860,"inserted_at":"2022-01-14","service_ids":[13631,27204,13626],"starts_at":"2022-01-14 03:43 UTC","status_page_id":4124,"title":"Service Ethereum /sra/v3/orders seems to be down","type":"major","url":"https://status.0x.org/incidents/72860"},{"ends_at":"2022-01-14 01:40 UTC","id":72856,"inserted_at":"2022-01-14","service_ids":[13626,13632,27204],"starts_at":"2022-01-14 01:38 UTC","status_page_id":4124,"title":"Service Ethereum /sra/v3/orderbook seems to be down","type":"major","url":"https://status.0x.org/incidents/72856"},{"ends_at":"2022-01-10 00:10 UTC","id":72471,"inserted_at":"2022-01-10","service_ids":[27212,13626,27207],"starts_at":"2022-01-10 00:05 UTC","status_page_id":4124,"title":"Service /swap/v1/quote seems to be down","type":"major","url":"https://status.0x.org/incidents/72471"},{"ends_at":"2022-01-03 00:08 UTC","id":71928,"inserted_at":"2022-01-03","service_ids":[27207,27212,13626],"starts_at":"2022-01-03 00:05 UTC","status_page_id":4124,"title":"Service /swap/v1/quote seems to be down","type":"major","url":"https://status.0x.org/incidents/71928"},{"ends_at":"2021-12-23 12:11 UTC","id":71488,"inserted_at":"2021-12-23","service_ids":[27202,13626,27203],"starts_at":"2021-12-23 12:07 UTC","status_page_id":4124,"title":"Service /swap/v1/quote seems to be down","type":"major","url":"https://status.0x.org/incidents/71488"},{"ends_at":"2021-12-20 01:19 UTC","id":71215,"inserted_at":"2021-12-20","service_ids":[27203,13626,27202],"starts_at":"2021-12-20 01:17 UTC","status_page_id":4124,"title":"Service /swap/v1/quote seems to be down","type":"major","url":"https://status.0x.org/incidents/71215"},{"ends_at":"2021-12-19 23:57 UTC","id":71212,"inserted_at":"2021-12-19","service_ids":[27202,13626,27203],"starts_at":"2021-12-19 23:53 UTC","status_page_id":4124,"title":"Service /swap/v1/quote seems to be down","type":"major","url":"https://status.0x.org/incidents/71212"},{"ends_at":"2021-12-14 21:46 UTC","id":70727,"inserted_at":"2021-12-14","service_ids":[22250,13626,27204],"starts_at":"2021-12-14 21:33 UTC","status_page_id":4124,"title":"Service /swap/v1/quote seems to be down","type":"major","url":"https://status.0x.org/incidents/70727"},{"ends_at":"2021-12-13 00:15 UTC","id":70380,"inserted_at":"2021-12-13","service_ids":[27212,27207,13626],"starts_at":"2021-12-13 00:06 UTC","status_page_id":4124,"title":"Service /swap/v1/quote seems to be down","type":"major","url":"https://status.0x.org/incidents/70380"},{"ends_at":"2021-12-10 15:00 UTC","id":70280,"inserted_at":"2021-12-10","service_ids":[27203,13626,27202],"starts_at":"2021-12-10 14:56 UTC","status_page_id":4124,"title":"Service /swap/v1/quote seems to be down","type":"major","url":"https://status.0x.org/incidents/70280"},{"ends_at":"2021-12-06 00:19 UTC","id":69693,"inserted_at":"2021-12-06","service_ids":[13626,27212,27207],"starts_at":"2021-12-06 00:05 UTC","status_page_id":4124,"title":"Service /swap/v1/quote seems to be down","type":"major","url":"https://status.0x.org/incidents/69693"}],"links":{"next":"https://statuspal.io/api/v1/status_pages/0x/incidents?after=g3QAAAACZAACaWRiAAEQPWQACXN0YXJ0c19hdHQAAAAJZAAKX19zdHJ1Y3RfX2QAFEVsaXhpci5OYWl2ZURhdGVUaW1lZAAIY2FsZW5kYXJkABNFbGl4aXIuQ2FsZW5kYXIuSVNPZAADZGF5YQZkAARob3VyYQBkAAttaWNyb3NlY29uZGgCYQBhAGQABm1pbnV0ZWEFZAAFbW9udGhhDGQABnNlY29uZGEeZAAEeWVhcmIAAAfl","prev":null},"meta":{"total_count":211}}